digraph G {
  1 [label = "StdoutTap['SequenceFile[[UNKNOWN]->['?i', '?s']]']['/var/folders/_1/vdbfx0vx51qdx823clgsf02w0000gn/T/temp22397189587305740081400492362247660000']"];
  2 [label = "Each('76bca0e9-e6da-4ab9-b9ce-a503010d5340')[ClojureFilter[decl:[{2}:'?i', '?s']]]"];
  3 [label = "Each('76bca0e9-e6da-4ab9-b9ce-a503010d5340')[Identity[decl:[{2}:'?i', '?s']]]"];
  4 [label = "Every('76bca0e9-e6da-4ab9-b9ce-a503010d5340')[ClojureBuffer[decl:[{1}:'?s']]]"];
  5 [label = "GroupBy('76bca0e9-e6da-4ab9-b9ce-a503010d5340')[by:['?i']]"];
  6 [label = "Each('76bca0e9-e6da-4ab9-b9ce-a503010d5340')[ClojureFilter[decl:[{2}:'?i', '?x']]]"];
  7 [label = "Each('76bca0e9-e6da-4ab9-b9ce-a503010d5340')[Identity[decl:[{2}:'?i', '?x']]]"];
  8 [label = "Each('76bca0e9-e6da-4ab9-b9ce-a503010d5340')[ClojureFilter[decl:[{2}:'?i', '?x']]]"];
  9 [label = "Each('76bca0e9-e6da-4ab9-b9ce-a503010d5340')[Identity[decl:[{2}:'?i', '?x']]]"];
  10 [label = "MemorySourceTap['MemorySourceScheme[[UNKNOWN]->[ALL]]']['/0d38c484-b472-48be-b359-b4193833bc78']"];
  11 [label = "[head]\n2.5.3\nHadoop:1.1.2:Apache"];
  12 [label = "[tail]"];
  9 -> 8 [label = "[{2}:'?i', '?x']\n[{2}:'?i', '?x']"];
  8 -> 7 [label = "[{2}:'?i', '?x']\n[{2}:'?i', '?x']"];
  7 -> 6 [label = "[{2}:'?i', '?x']\n[{2}:'?i', '?x']"];
  6 -> 5 [label = "[{2}:'?i', '?x']\n[{2}:'?i', '?x']"];
  5 -> 4 [label = "76bca0e9-e6da-4ab9-b9ce-a503010d5340[{1}:'?i']\n[{2}:'?i', '?x']"];
  4 -> 3 [label = "[{3}:'?i', '?x', '?s']\n[{2}:'?i', '?x']"];
  3 -> 2 [label = "[{2}:'?i', '?s']\n[{2}:'?i', '?s']"];
  11 -> 10 [label = ""];
  1 -> 12 [label = "[{2}:'?i', '?s']\n[{2}:'?i', '?s']"];
  10 -> 9 [label = "[{?}:UNKNOWN]\n[{?}:UNKNOWN]"];
  2 -> 1 [label = "[{2}:'?i', '?s']\n[{2}:'?i', '?s']"];
}
